t	C-mmol/L
h	S_Pr
0	0
0.2	0.4547
0.4	0.6931
0.6	0.8724
0.8	1.033
1	1.181
1.2	0.7618
1.4	0.4394
1.6	0.2271
1.8	0.107
2	0.04745
2.2	0.02037
2.4	0.008614
2.6	0.02615
2.8	0.04243
3	0.04471
3.2	0.02214
3.4	0.01074
3.6	0.005182
3.8	0.002493
4	0.001197
