t	C-mmol/L
h	S_Ac
0	0
0.2	0.6574
0.4	1.072
0.6	1.41
0.8	1.719
1	2.005
1.2	1.55
1.4	1.134
1.6	0.7807
1.8	0.4997
2	0.2961
2.2	0.1634
2.4	0.08537
2.6	0.078
2.8	0.09169
3	0.09154
3.2	0.05201
3.4	0.02886
3.6	0.01585
3.8	0.008658
4	0.004713

